<?xml version="1.0" encoding="UTF-8" standalone="no"?>
<!-- Created with Inkscape (http://www.inkscape.org/) -->

<svg
   width="800"
   height="97.204796"
   id="svg2"
   sodipodi:version="0.32"
   inkscape:version="1.1.2 (0a00cf5339, 2022-02-04)"
   version="1.0"
   sodipodi:docname="dark.svg"
   inkscape:output_extension="org.inkscape.output.svg.inkscape"
   inkscape:export-filename="/home/andy/Schreibtisch/logo_novitatis.png"
   inkscape:export-xdpi="185.175"
   inkscape:export-ydpi="185.175"
   xmlns:inkscape="http://www.inkscape.org/namespaces/inkscape"
   xmlns:sodipodi="http://sodipodi.sourceforge.net/DTD/sodipodi-0.dtd"
   xmlns="http://www.w3.org/2000/svg"
   xmlns:svg="http://www.w3.org/2000/svg"
   xmlns:rdf="http://www.w3.org/1999/02/22-rdf-syntax-ns#"
   xmlns:cc="http://creativecommons.org/ns#"
   xmlns:dc="http://purl.org/dc/elements/1.1/">
  <defs
     id="defs4">
    <inkscape:perspective
       sodipodi:type="inkscape:persp3d"
       inkscape:vp_x="0 : 526.18109 : 1"
       inkscape:vp_y="0 : 1000 : 0"
       inkscape:vp_z="744.09448 : 526.18109 : 1"
       inkscape:persp3d-origin="372.04724 : 350.78739 : 1"
       id="perspective10" />
    <inkscape:perspective
       id="perspective2390"
       inkscape:persp3d-origin="372.04724 : 350.78739 : 1"
       inkscape:vp_z="744.09448 : 526.18109 : 1"
       inkscape:vp_y="0 : 1000 : 0"
       inkscape:vp_x="0 : 526.18109 : 1"
       sodipodi:type="inkscape:persp3d" />
  </defs>
  <sodipodi:namedview
     id="base"
     pagecolor="#fdfdfd"
     bordercolor="#666666"
     borderopacity="1.0"
     inkscape:pageopacity="0.0"
     inkscape:pageshadow="2"
     inkscape:zoom="0.88831977"
     inkscape:cx="442.40826"
     inkscape:cy="120.45212"
     inkscape:document-units="px"
     inkscape:current-layer="layer1"
     showgrid="false"
     inkscape:window-width="1920"
     inkscape:window-height="1031"
     inkscape:window-x="0"
     inkscape:window-y="0"
     inkscape:window-maximized="1"
     inkscape:pagecheckerboard="0" />
  <metadata
     id="metadata7">
    <rdf:RDF>
      <cc:Work
         rdf:about="">
        <dc:format>image/svg+xml</dc:format>
        <dc:type
           rdf:resource="http://purl.org/dc/dcmitype/StillImage" />
      </cc:Work>
    </rdf:RDF>
  </metadata>
  <g
     inkscape:label="Ebene 1"
     inkscape:groupmode="layer"
     id="layer1"
     transform="translate(-14.240676,-366.78218)">
    <path
       id="path2394"
       style="fill:#fdfdfd;fill-opacity:1;fill-rule:evenodd;stroke:none"
       d="M 516.63672 0 L 516.63672 15.644531 L 532.75781 15.644531 L 532.75781 0 L 516.63672 0 z M 0 22.101562 L 0 97.205078 L 800 97.205078 L 800 22.101562 L 690.89648 22.101562 L 690.89648 28.185547 L 706.06641 28.185547 L 706.06641 40.066406 L 690.89648 40.066406 L 690.89648 67.650391 C 690.89648 72.347981 691.62144 75.70079 693.08984 77.75 C 694.53905 79.79922 696.91806 80.8125 700.22852 80.8125 C 701.07801 80.8125 702.03114 80.730912 703.08594 80.544922 C 704.14188 80.358512 705.25888 80.088767 706.41797 79.716797 L 706.66602 91.056641 C 704.88562 91.532611 703.06434 91.884138 701.18164 92.111328 C 699.29837 92.339368 697.41421 92.464649 695.50977 92.505859 C 688.05897 92.505859 682.74127 90.664459 679.49219 86.980469 C 676.26413 83.317649 674.65039 77.19228 674.65039 68.625 L 674.65039 40.066406 L 662.21289 40.066406 L 662.21289 28.185547 L 675.375 28.185547 L 675.375 22.101562 L 572.96875 22.101562 L 572.96875 28.185547 L 588.13867 28.185547 L 588.13867 40.066406 L 572.96875 40.066406 L 572.96875 67.650391 C 572.96875 72.347981 573.69371 75.70079 575.16211 77.75 C 576.61132 79.79922 578.99227 80.8125 582.30273 80.8125 C 583.15236 80.8125 584.1034 80.730912 585.1582 80.544922 C 586.21428 80.358512 587.331 80.088767 588.49023 79.716797 L 588.73828 91.056641 C 586.95788 91.532611 585.13675 91.884138 583.25391 92.111328 C 581.37078 92.339368 579.48842 92.464649 577.58398 92.505859 C 570.13318 92.505859 564.81564 90.664459 561.56641 86.980469 C 558.33835 83.317649 556.72266 77.19228 556.72266 68.625 L 556.72266 40.066406 L 544.28516 40.066406 L 544.28516 28.185547 L 557.44727 28.185547 L 557.44727 22.101562 L 197.31445 22.101562 L 197.31445 37.582031 C 199.69443 33.980741 202.63328 31.248504 206.13086 29.365234 C 209.62801 27.481684 213.60002 26.550781 218.04883 26.550781 C 226.18233 26.550781 232.70339 29.470676 237.60742 35.285156 C 242.51216 41.100766 244.97461 48.860506 244.97461 58.566406 C 244.97461 68.499636 242.4712 76.570827 237.46289 82.779297 C 232.43411 88.987337 225.9756 92.091797 218.04883 92.091797 C 213.16483 92.091797 208.79873 90.911859 204.94922 88.574219 C 201.12073 86.234729 198.01861 82.841194 195.67969 78.433594 L 195.67969 91.119141 L 181.06836 91.119141 L 181.06836 22.101562 L 85.457031 22.101562 L 85.457031 91.119141 L 69.335938 91.119141 L 69.335938 22.101562 L 0 22.101562 z M 38.128906 26.550781 C 41.730061 26.550781 46.488509 27.359056 52.427734 28.972656 C 53.792984 29.345056 54.829306 29.593676 55.511719 29.759766 L 54.25 42.423828 C 51.373168 41.285488 48.930393 40.478712 46.902344 39.982422 C 44.89518 39.464832 43.114758 39.216797 41.583984 39.216797 C 35.519877 39.216797 30.635243 41.079498 26.931641 44.804688 C 23.227193 48.509138 21.384766 53.412453 21.384766 59.476562 C 21.384766 65.539683 23.227193 70.487138 26.931641 74.335938 C 30.635243 78.164708 35.437917 80.087891 41.335938 80.087891 C 43.467137 80.087891 45.641012 79.756874 47.855469 79.115234 C 50.04904 78.473744 52.532361 77.419063 55.285156 75.970703 L 55.884766 88.884766 C 51.394046 90.416806 47.895571 91.448777 45.371094 91.966797 C 42.846334 92.483967 40.466832 92.753906 38.251953 92.753906 C 27.987955 92.753906 19.793178 89.690093 13.667969 83.564453 C 7.5416307 77.439243 4.4785156 69.285526 4.4785156 59.103516 C 4.4785156 49.687886 7.6445673 41.906566 13.957031 35.759766 C 20.289814 29.612966 28.34003 26.550781 38.128906 26.550781 z M 333.98438 26.550781 C 341.37196 26.550781 346.9799 28.847475 350.78906 33.421875 C 354.57634 38.015885 356.47852 44.762615 356.47852 53.640625 L 356.47852 91.119141 L 340.17188 91.119141 L 340.17188 57.097656 C 340.17188 51.282046 339.17751 46.997439 337.16992 44.224609 C 335.16276 41.451349 332.03881 40.066406 327.79688 40.066406 C 323.26409 40.066406 319.66173 41.824921 316.99219 45.363281 C 314.32223 48.901361 312.99805 53.723375 312.99805 59.828125 L 312.99805 91.119141 L 296.87695 91.119141 L 296.87695 28.185547 L 311.61328 28.185547 L 311.61328 39.589844 C 313.99326 35.305844 317.07568 32.056851 320.8418 29.863281 C 324.62851 27.649251 329.01726 26.550781 333.98438 26.550781 z M 403.26953 26.550781 C 413.69961 26.550781 421.89508 29.490846 427.85547 35.347656 C 433.81586 41.204046 436.79687 49.293989 436.79688 59.599609 C 436.79688 69.865159 433.796 77.958053 427.81445 83.876953 C 421.83359 89.795293 413.65869 92.753906 403.26953 92.753906 C 392.8815 92.753906 384.72758 89.794504 378.78906 83.896484 C 372.84913 77.998464 369.86914 69.905519 369.86914 59.599609 C 369.86914 49.293989 372.82761 41.204046 378.74609 35.347656 C 384.66485 29.490846 392.83916 26.550781 403.26953 26.550781 z M 628.19922 26.550781 C 637.67652 26.550781 644.56854 28.847475 648.91406 33.421875 C 653.26014 38.015885 655.43359 45.281194 655.43359 55.214844 L 655.43359 91.119141 L 641.13281 91.119141 L 640.88477 80.916016 C 638.25629 84.806876 635.15304 87.745213 631.55273 89.751953 C 627.95144 91.759963 623.93682 92.753906 619.54883 92.753906 C 613.23722 92.753906 608.14476 90.910631 604.25391 87.207031 C 600.38436 83.501881 598.43945 78.723158 598.43945 72.867188 C 598.43945 65.872028 601.21194 60.614768 606.73828 57.117188 C 612.28352 53.619607 620.56287 51.882812 631.61328 51.882812 L 639.91211 51.882812 L 639.91211 50.970703 C 639.91211 46.686713 638.56636 43.376214 635.85547 40.996094 C 633.14388 38.636994 629.31625 37.457031 624.39062 37.457031 C 621.59704 37.457031 618.69962 37.871923 615.67773 38.720703 C 612.67728 39.568783 609.57428 40.851118 606.38672 42.548828 L 606.13867 31.042969 C 609.90506 29.490609 613.58853 28.372898 617.23047 27.648438 C 620.87283 26.923688 624.53569 26.550781 628.19922 26.550781 z M 774.49023 26.550781 C 776.51828 26.550781 778.75371 26.799421 781.2168 27.275391 C 783.70008 27.772241 787.19792 28.703659 791.77148 30.130859 L 790.55078 42.072266 C 787.77795 40.623756 785.02452 39.526774 782.3125 38.802734 C 779.60218 38.078694 776.91187 37.707031 774.24219 37.707031 C 771.34546 37.707031 769.11053 38.202032 767.55859 39.195312 C 766.0065 40.188873 765.21875 41.596174 765.21875 43.458984 C 765.21875 46.252554 768.50898 49.109129 775.08984 52.005859 C 775.81374 52.337469 776.37338 52.586109 776.72461 52.730469 C 783.49173 55.731619 788.12819 58.668826 790.67383 61.566406 C 793.21863 64.442386 794.50391 68.023255 794.50391 72.265625 C 794.50391 78.247185 792.12264 82.985552 787.3418 86.482422 C 782.58227 89.980002 776.08413 91.71875 767.82617 91.71875 C 764.34976 91.71875 760.9772 91.449425 757.66602 90.890625 C 754.3756 90.352985 751.2517 89.567229 748.3125 88.511719 L 749.22266 76.074219 C 752.20236 77.564629 755.26544 78.703186 758.39062 79.447266 C 761.53585 80.192756 764.64074 80.564453 767.70312 80.564453 C 770.89068 80.564453 773.37357 80.026302 775.13281 78.951172 C 776.89119 77.895102 777.75977 76.405963 777.75977 74.501953 C 777.75977 71.397083 773.60003 67.754953 765.28125 63.595703 L 764.9707 63.408203 C 758.76153 60.324223 754.56076 57.489238 752.36719 54.861328 C 750.19478 52.233698 749.09766 49.04764 749.09766 45.28125 C 749.09766 39.75576 751.43695 35.243988 756.09375 31.767578 C 760.7706 28.290318 766.89577 26.550781 774.49023 26.550781 z M 102.69727 28.185547 L 118.94336 28.185547 L 118.94336 61.607422 C 118.94336 67.423032 119.9559 71.706614 121.98438 74.458984 C 123.99155 77.211784 127.13836 78.578125 131.38086 78.578125 C 136.18118 78.578125 139.86419 76.673333 142.38867 72.845703 C 144.91385 69.016503 146.17578 63.491871 146.17578 56.269531 L 146.17578 28.185547 L 162.42188 28.185547 L 162.42188 91.119141 L 147.625 91.119141 L 147.625 79.054688 C 145.28623 83.338678 142.22436 86.585727 138.4375 88.779297 C 134.67068 90.994177 130.28281 92.091797 125.31641 92.091797 C 117.90723 92.091797 112.29887 89.794253 108.44922 85.220703 C 104.62088 80.626693 102.69727 73.901253 102.69727 65.064453 L 102.69727 28.185547 z M 443.39844 28.185547 L 460.74023 28.185547 L 475.78516 76.570312 L 491.18164 28.185547 L 507.30469 28.185547 L 484.43555 91.119141 L 465.83203 91.119141 L 443.39844 28.185547 z M 516.63672 28.185547 L 532.75781 28.185547 L 532.75781 91.119141 L 516.63672 91.119141 L 516.63672 28.185547 z M 718.95898 28.185547 L 735.08008 28.185547 L 735.08008 91.119141 L 718.95898 91.119141 L 718.95898 28.185547 z M 403.26953 38.244141 C 398.38596 38.244141 394.41243 40.189963 391.34961 44.101562 C 388.30712 47.991574 386.77539 53.122298 386.77539 59.455078 C 386.77539 65.767118 388.30712 70.85929 391.34961 74.75 C 394.41243 78.62011 398.38596 80.564453 403.26953 80.564453 C 408.23678 80.564453 412.23119 78.64085 415.25195 74.8125 C 418.25311 70.96243 419.76367 65.849528 419.76367 59.455078 C 419.76367 53.039888 418.25288 47.887872 415.21094 44.039062 C 412.18976 40.168673 408.19473 38.244141 403.26953 38.244141 z M 213.45508 38.740234 C 208.46779 38.740234 204.53614 40.581635 201.66016 44.265625 C 198.763 47.928445 197.31445 52.956833 197.31445 59.351562 C 197.31445 65.580773 198.72033 70.526773 201.55469 74.189453 C 204.39032 77.874283 208.19945 79.716797 212.95898 79.716797 C 217.53296 79.716797 221.19634 77.894313 223.96875 74.251953 C 226.74229 70.631183 228.12891 65.768618 228.12891 59.705078 C 228.12891 53.331088 226.78375 48.239241 224.09375 44.431641 C 221.40346 40.644921 217.86339 38.740234 213.45508 38.740234 z M 634.2207 61.027344 C 627.6191 61.027344 622.6747 61.93933 619.3418 63.78125 C 616.01059 65.62289 614.33398 68.375078 614.33398 72.017578 C 614.33398 74.749068 615.28502 76.984815 617.18945 78.703125 C 619.07258 80.420725 621.5767 81.289062 624.63867 81.289062 C 629.08917 81.289062 632.73143 79.716557 635.60742 76.591797 C 638.48382 73.445727 639.91211 69.388285 639.91211 64.421875 L 639.91211 61.027344 L 634.2207 61.027344 z "
       transform="translate(14.240676,366.78218)" />
    <path
       inkscape:connector-curvature="0"
       d="m 733.19984,366.78218 16.12152,0 0,15.64512 -16.12152,0 0,-15.64512 z m -145.99,3.78601 0,18.31509 -15.52123,0 0,-13.09991 15.52123,-5.21518 z m -375.6555,-3.78601 0,22.1011 -16.2457,0 0,-22.1011 16.2457,0 z m -111.856506,0 0,22.1011 -16.121095,0 0,-22.1011 16.121095,0 z m 605.438826,3.78601 0,18.31509 -15.52081,0 0,-13.09991"
       style="fill:#fdfdfd;fill-opacity:1;fill-rule:evenodd;stroke:none"
       id="path2400" />
  </g>
</svg>
