<?xml version="1.0" encoding="UTF-8" standalone="no"?>
<svg
   xmlns="http://www.w3.org/2000/svg"
   width="3007"
   height="222"
   viewBox="0 0 3007 222">
  <rect
     x="0" y="0" rx="10" ry="10"
     width="100" height="100"
     style="fill:#2e2e2e" />
  <rect
     x="120" y="0" rx="10" ry="10"
     width="100" height="100"
     style="fill:#2e2e2e" />
  <rect
     x="0" y="120" rx="10" ry="10"
     width="100" height="100"
     style="fill:#2e2e2e" />
  <path
     style="fill:#2e2e2e"
     d="m 190.64679,120.2357 -17.35287,82.35261 h -6.61763 L 149.32342,120.2357 h -21.32344 l 23.2352,99.9996 h 37.49985 l 23.2352,-99.9996 z" />
  <path
     style="fill:#2e2e2e"
     d="m 225.2813,220.2353 h 64.70562 v -17.64699 h -44.41158 v -23.97046 h 35.58809 v -17.35293 h -35.58809 v -23.38223 h 44.41158 V 120.2357 H 225.2813 Z" />
  <path
     style="fill:#2e2e2e"
     d="m 346.70545,186.70602 11.61761,33.52928 h 22.20579 L 366.2642,182.00016 c 9.11761,-5.73525 14.70583,-14.99999 14.70583,-28.82342 0,-22.794 -12.49996,-32.94104 -35.29398,-32.94104 h -38.82338 v 99.9996 h 20.29404 v -33.52928 z m 13.52936,-33.23521 c 0,8.82349 -4.11763,15.88229 -14.26464,15.88229 h -18.82346 v -31.76458 h 18.52934 c 9.70584,0 14.55876,6.32358 14.55876,15.88229 z" />
  <path
     style="fill:#2e2e2e"
     d="m 397.9024,220.2353 h 64.70562 v -17.64699 h -44.41158 v -23.97046 h 35.58809 v -17.35293 h -35.58809 v -23.38223 h 44.41158 V 120.2357 H 397.9024 Z" />
  <path
     style="fill:#2e2e2e"
     d="M 479.47376,220.2353 H 499.7678 V 120.2357 H 479.47376 Z" />
  <path
     style="fill:#2e2e2e"
     d="m 521.40834,220.2353 h 20.29404 v -82.35261 h 1.47058 l 24.9999,82.35261 h 33.38223 v -99.9996 h -20.29404 v 82.35261 h -1.47058 L 555.67292,120.2357 h -34.26458 z" />
  <path
     style="fill:#2e2e2e"
     d="m 623.37255,220.2353 h 20.29404 v -99.9996 h -20.29404 z" />
  <path
     style="fill:#2e2e2e"
     d="m 706.9246,184.35309 h 9.11762 v 19.41169 c 0,0 -6.17645,0.58823 -12.20583,0.58823 -18.23522,0 -21.91169,-7.49994 -21.91169,-34.11751 0,-28.0881 5.14705,-33.82345 22.49992,-33.82345 13.38229,0 31.02928,1.91179 31.02928,1.91179 l 0.58824,-15.73521 c 0,0 -19.41169,-4.11763 -34.8528,-4.11763 -29.55871,0 -40.14691,15.29406 -40.14691,51.7645 0,33.52928 8.23527,51.7645 40.88219,51.7645 13.08819,0 34.11752,-3.38231 34.11752,-3.38231 V 166.7061 H 706.9246 Z" />
  <path
     style="fill:#2e2e2e"
     d="M 774.61965,186.85311 V 120.2357 h -20.29403 v 66.17615 c 0,24.99996 13.08817,35.58815 38.08808,35.58815 24.9999,0 38.08808,-10.58819 38.08808,-35.58815 V 120.2357 h -20.29403 v 66.61741 c 0,11.76466 -5.88233,17.4999 -17.79405,17.4999 -11.91172,0 -17.79405,-5.58827 -17.79405,-17.4999 z" />
  <path
     style="fill:#2e2e2e"
     d="m 851.42771,220.2353 h 20.29404 v -82.35261 h 1.47058 l 24.9999,82.35261 h 33.38222 v -99.9996 h -20.29404 v 82.35261 h -1.47058 L 885.69228,120.2357 h -34.26457 z" />
  <path
     style="fill:#2e2e2e"
     d="m 995.00945,184.35309 h 9.11755 v 19.41169 c 0,0 -6.17639,0.58823 -12.2058,0.58823 -18.23522,0 -21.91171,-7.49994 -21.91171,-34.11751 0,-28.0881 5.14701,-33.82345 22.49994,-33.82345 13.38227,0 31.02927,1.91179 31.02927,1.91179 l 0.5882,-15.73521 c 0,0 -19.4117,-4.11763 -34.8528,-4.11763 -29.55867,0 -40.14687,15.29406 -40.14687,51.7645 0,33.52928 8.23527,51.7645 40.88218,51.7645 13.08819,0 34.11749,-3.38231 34.11749,-3.38231 V 166.7061 h -29.11745 z" />
  <path
     style="fill:#2e2e2e"
     d="m 1102.0662,220.23527 c 35.8822,0 42.4999,-17.79397 42.4999,-51.91148 0,-33.23521 -7.6471,-48.08812 -42.4999,-48.08812 h -33.6763 v 99.9996 z m 21.6176,-51.91148 c 0,22.20577 -1.9118,34.26449 -21.6176,34.26449 h -13.3823 v -64.70562 h 13.3823 c 19.7058,0 21.6176,8.52943 21.6176,30.44113 z" />
  <path
     style="fill:#2e2e2e"
     d="m 1202.1646,186.70599 11.6176,33.52928 h 22.2058 l -14.2646,-38.23514 c 9.1176,-5.73525 14.7058,-14.99989 14.7058,-28.82342 0,-22.794 -12.4999,-32.94104 -35.294,-32.94104 h -38.8233 v 99.9996 h 20.294 v -33.52928 z m 13.5294,-33.23511 c 0,8.8235 -4.1176,15.88229 -14.2647,15.88229 h -18.8234 v -31.76458 h 18.5293 c 9.7059,0 14.5588,6.32348 14.5588,15.88229 z" />
  <path
     style="fill:#2e2e2e"
     d="m 1253.3616,220.23527 h 64.7056 v -17.64699 h -44.4116 v -23.97046 h 35.5881 V 161.265 h -35.5881 v -23.38234 h 44.4116 v -17.64699 h -64.7056 z" />
  <path
     style="fill:#2e2e2e"
     d="m 1396.5504,122.44162 c 0,0 -19.5588,-3.97065 -32.9411,-3.97065 -20.294,0 -34.1175,8.97058 -34.1175,29.70582 0,16.02937 8.5294,23.6764 31.0293,30.14696 14.4117,4.11763 17.9411,6.91171 17.9411,13.08811 0,7.79411 -4.7059,12.94112 -15.5882,12.94112 -10.4411,0 -30.1469,-2.64699 -30.1469,-2.64699 l -2.0588,15.7352 c 0,0 19.7058,4.55878 33.3822,4.55878 19.7058,0 34.5587,-10.14694 34.5587,-31.91156 0,-16.61761 -6.6176,-22.64702 -28.2352,-29.55873 -16.7647,-5.2941 -20.7352,-7.49994 -20.7352,-13.82353 0,-6.61754 5.147,-10.58819 16.0293,-10.58819 8.5294,0 29.2646,2.35293 29.2646,2.35293 z" />
  <path
     style="fill:#2e2e2e"
     d="m 1448.7445,220.23527 c 35.8823,0 42.4999,-17.79397 42.4999,-51.91148 0,-33.23521 -7.6471,-48.08812 -42.4999,-48.08812 h -33.6763 v 99.9996 z m 21.6176,-51.91148 c 0,22.20577 -1.9118,34.26449 -21.6176,34.26449 h -13.3823 v -64.70562 h 13.3823 c 19.7058,0 21.6176,8.52943 21.6176,30.44113 z" />
  <path
     style="fill:#2e2e2e"
     d="m 1508.9902,220.23527 h 20.294 v -82.35261 h 1.4706 l 24.9999,82.35261 h 33.3822 v -99.9996 h -20.294 v 82.35261 h -1.4706 l -24.1176,-82.35261 h -34.2645 z" />
  <path
     style="fill:#2e2e2e"
     d="m 1610.9544,220.23527 h 64.7056 v -17.64699 h -44.4116 v -23.97046 h 35.5881 V 161.265 h -35.5881 v -23.38234 h 44.4116 v -17.64699 h -64.7056 z" />
  <path
     style="fill:#2e2e2e"
     d="m 1732.3785,186.70599 11.6176,33.52928 h 22.2058 l -14.2646,-38.23514 c 9.1176,-5.73525 14.7058,-14.99989 14.7058,-28.82342 0,-22.794 -12.5,-32.94104 -35.294,-32.94104 h -38.8234 v 99.9996 h 20.2941 v -33.52928 z m 13.5294,-33.23511 c 0,8.8235 -4.1177,15.88229 -14.2647,15.88229 h -18.8234 v -31.76458 h 18.5293 c 9.7059,0 14.5588,6.32348 14.5588,15.88229 z" />
  <path
     style="fill:#2e2e2e"
     d="m 1877.9645,122.44151 c 0,0 -19.5587,-3.97054 -32.941,-3.97054 -20.2941,0 -34.1175,8.97058 -34.1175,29.70571 0,16.02937 8.5294,23.6764 31.0293,30.14696 14.4117,4.11763 17.9411,6.91171 17.9411,13.08821 0,7.79412 -4.7059,12.94113 -15.5882,12.94113 -10.4411,0 -30.1469,-2.6471 -30.1469,-2.6471 l -2.0589,15.73531 c 0,0 19.7058,4.55878 33.3823,4.55878 19.7058,0 34.5586,-10.14705 34.5586,-31.91167 0,-16.61761 -6.6176,-22.64691 -28.2351,-29.55873 -16.7647,-5.2941 -20.7352,-7.49994 -20.7352,-13.82342 0,-6.61765 5.147,-10.5882 16.0293,-10.5882 8.5294,0 29.2646,2.35294 29.2646,2.35294 z" />
  <path
     style="fill:#2e2e2e"
     d="m 1887.5118,138.17672 h 26.7646 v 82.05855 h 20.2941 v -82.05855 h 26.4705 v -17.94105 h -73.5292 z" />
  <path
     style="fill:#2e2e2e"
     d="m 1993.1571,186.85307 v -66.6174 h -20.294 v 66.17615 c 0,24.99995 13.0881,35.58815 38.088,35.58815 24.9999,0 38.0881,-10.5882 38.0881,-35.58815 v -66.17615 h -20.294 v 66.6174 c 0,11.76466 -5.8823,17.49991 -17.7941,17.49991 -11.9117,0 -17.794,-5.58827 -17.794,-17.49991 z" />
  <path
     style="fill:#2e2e2e"
     d="m 2103.6415,220.23527 c 35.8822,0 42.4998,-17.79408 42.4998,-51.91159 0,-33.23511 -7.647,-48.08801 -42.4998,-48.08801 h -33.6764 v 99.9996 z m 21.6175,-51.91159 c 0,22.20577 -1.9117,34.2646 -21.6175,34.2646 h -13.3823 v -64.70563 h 13.3823 c 19.7058,0 21.6175,8.52933 21.6175,30.44103 z" />
  <path
     style="fill:#2e2e2e"
     d="m 2163.8871,220.23527 h 64.7056 v -17.64699 h -44.4116 v -23.97047 h 35.5881 v -17.35292 h -35.5881 v -23.38224 h 44.4116 v -17.64698 h -64.7056 z" />
  <path
     style="fill:#2e2e2e"
     d="m 2245.4585,220.23527 h 20.294 v -82.35262 h 1.4706 l 24.9999,82.35262 h 33.3822 v -99.9996 h -20.294 v 82.35261 h -1.4706 l -24.1176,-82.35261 h -34.2645 z" />
  <path
     style="fill:#2e2e2e"
     d="m 2338.4521,138.17672 h 26.7646 v 82.05855 h 20.2941 v -82.05855 h 26.4704 v -17.94105 h -73.5291 z" />
  <path
     style="fill:#2e2e2e"
     d="m 2424.6857,220.23527 h 64.7056 v -17.64699 h -44.4116 v -23.97047 h 35.5881 v -17.35292 h -35.5881 v -23.38224 h 44.4116 v -17.64698 h -64.7056 z" />
  <path
     style="fill:#2e2e2e"
     d="m 2506.2571,220.23527 h 20.294 v -82.35262 h 1.4706 l 24.9999,82.35262 h 33.3822 v -99.9996 h -20.294 v 82.35261 h -1.4706 l -24.1176,-82.35261 h -34.2645 z" />
  <path
     style="fill:#2e2e2e"
     d="m 2671.1622,202.00005 c -5.8823,0.88229 -18.3823,2.05876 -25.1469,2.05876 -17.3529,0 -20.8823,-6.91171 -20.8823,-33.82334 0,-28.38227 4.8529,-33.82345 20.294,-33.82345 6.6176,0 18.9705,1.17646 25.7352,2.20595 l 0.5882,-16.17646 c -6.1764,-1.47053 -18.8234,-3.97054 -29.2645,-3.97054 -29.7058,0 -38.2352,13.82342 -38.2352,51.7645 0,34.9998 7.3529,51.7645 38.2352,51.7645 9.1175,0 22.3528,-1.91179 29.1175,-3.38232 z" />
  <path
     style="fill:#2e2e2e"
     d="m 2744.9808,220.23527 v -17.94116 h -36.6175 v -82.05844 h -20.294 v 99.9996 z" />
  <path
     style="fill:#2e2e2e"
     d="m 2776.1273,186.85307 v -66.6174 h -20.294 v 66.17615 c 0,24.99995 13.0881,35.58815 38.0881,35.58815 24.9998,0 38.088,-10.5882 38.088,-35.58815 v -66.17615 h -20.2939 v 66.6174 c 0,11.76466 -5.8824,17.49991 -17.7941,17.49991 -11.9118,0 -17.7941,-5.58827 -17.7941,-17.49991 z" />
  <path
     style="fill:#2e2e2e"
     d="m 2852.9353,120.23567 v 99.9996 h 39.8529 c 19.9999,0 32.4998,-8.67641 32.4998,-28.67633 0,-12.94113 -4.4117,-19.11763 -12.9411,-22.79411 7.9412,-4.99993 11.0294,-10.73517 11.0294,-22.05868 0,-19.11763 -11.0294,-26.47048 -31.1763,-26.47048 z m 38.8234,58.23506 c 8.0883,0 12.9411,3.82346 12.9411,12.05872 0,9.85298 -4.5587,12.35289 -12.9411,12.35289 h -18.5293 v -24.41161 z m -0.5882,-40.88225 c 7.647,0 11.6177,3.5294 11.6177,11.76466 0,7.9412 -3.5294,12.05883 -11.4706,12.05883 h -18.0882 v -23.82349 z" />
  <path
     style="fill:#2e2e2e"
     d="m 3004.1664,122.44151 c 0,0 -19.5587,-3.97054 -32.9411,-3.97054 -20.294,0 -34.1175,8.97058 -34.1175,29.70571 0,16.02937 8.5294,23.6764 31.0294,30.14696 14.4116,4.11763 17.941,6.91171 17.941,13.08821 0,7.79412 -4.7058,12.94113 -15.5881,12.94113 -10.4412,0 -30.147,-2.6471 -30.147,-2.6471 l -2.0588,15.73531 c 0,0 19.7058,4.55878 33.3823,4.55878 19.7057,0 34.5586,-10.14705 34.5586,-31.91167 0,-16.61761 -6.6176,-22.64691 -28.2352,-29.55873 -16.7646,-5.2941 -20.7352,-7.49994 -20.7352,-13.82342 0,-6.61765 5.147,-10.5882 16.0294,-10.5882 8.5293,0 29.2645,2.35294 29.2645,2.35294 z" />
</svg>
