<?xml version="1.0" encoding="UTF-8" standalone="no"?>
<svg
   xmlns="http://www.w3.org/2000/svg"
   viewBox="0 0 465 222"
   height="222"
   width="465">
  <rect
     x="0" y="0" rx="10" ry="10"
     width="100" height="100"
     style="fill:#2e2e2e" />
  <rect
     x="120" y="0" rx="10" ry="10"
     width="100" height="100"
     style="fill:#d6d6d6" />
  <rect
     x="0" y="120" rx="10" ry="10"
     width="100" height="100"
     style="fill:#828282" />
  <path
     style="fill:#2e2e2e"
     d="M 190.93182,119.77273 173.5,202.5 h -6.64772 L 149.42046,119.77273 H 128 l 23.34091,100.45454 h 37.67046 l 23.3409,-100.45454 z" />
  <path
     style="fill:#2e2e2e"
     d="m 259.55344,220.22727 c 36.04545,0 42.69319,-17.875 42.69319,-52.14772 0,-33.38637 -7.68182,-48.30682 -42.69319,-48.30682 H 225.7239 v 100.45454 z m 21.71591,-52.14772 c 0,22.30681 -1.92045,34.42045 -21.71591,34.42045 h -13.44318 v -65 h 13.44318 c 19.79546,0 21.71591,8.56818 21.71591,30.57955 z" />
  <path
     style="fill:#2e2e2e"
     d="m 381.97089,121.98864 c 0,0 -19.64773,-3.98864 -33.09091,-3.98864 -20.38636,0 -34.27273,9.01136 -34.27273,29.84091 0,16.10227 8.56818,23.78409 31.17046,30.28409 14.47727,4.13636 18.02273,6.94318 18.02273,13.14773 0,7.82954 -4.72728,13 -15.65909,13 -10.48864,0 -30.28409,-2.65909 -30.28409,-2.65909 l -2.06819,15.80682 c 0,0 19.79545,4.57954 33.53409,4.57954 19.79546,0 34.71591,-10.19318 34.71591,-32.05682 0,-16.69318 -6.64772,-22.75 -28.36363,-29.69318 -16.84091,-5.31818 -20.82955,-7.53409 -20.82955,-13.88636 0,-6.64773 5.17045,-10.63637 16.10227,-10.63637 8.56819,0 29.39773,2.36364 29.39773,2.36364 z" />
  <path
     style="fill:#2e2e2e"
     d="m 463.80026,201.90909 c -5.90909,0.88636 -18.46591,2.06818 -25.26136,2.06818 -17.43182,0 -20.97727,-6.94318 -20.97727,-33.97727 0,-28.51136 4.87499,-33.97727 20.38636,-33.97727 6.64772,0 19.05681,1.18182 25.85227,2.21591 l 0.59091,-16.25 C 458.18662,120.51136 445.48208,118 434.99345,118 c -29.84091,0 -38.40909,13.88636 -38.40909,52 0,35.15909 7.38636,52 38.40909,52 9.15908,0 22.45453,-1.92046 29.24999,-3.39772 z" />
</svg>
